{
    "name": "front-end",
    "plugins": [
        {
            "name": "TailwindCSS",
            "description": "A utility-first CSS framework packed with classes like flex, pt-4, text-center and rotate-90 that can be composed to build any design, directly in your markup.",
            "url": "https://tailwindcss.com/docs"
        },
        {
            "name": "CSS / styled-jsx",
            "description": "Next.js comes with built-in support for CSS and styled-jsx. Styled-jsx is full, scoped and component-friendly CSS support for JSX (rendered on the server or the client).",
            "url": "https://github.com/vercel/styled-jsx"
        },
        {
            "name": "Axios",
            "description": "Promise based HTTP client for the browser and node.js.",
            "url": "https://github.com/axios/axios"
        },
        {
            "name": "Environment Variables",
            "description": "Use environment variables in your next.js project for server side, client or both.",
            "url": "https://github.com/vercel/next.js/tree/canary/examples/environment-variables"
        },
        {
            "name": "SWR",
            "description": "React Hooks library for data fetching from Vercel",
            "url": "https://swr.vercel.app/"
        },
        {
            "name": "React Query",
            "description": "Hooks for fetching, caching and updating asynchronous data in React.",
            "url": "https://react-query.tanstack.com/overview"
        },
        {
            "name": "React Redux",
            "description": "Redux helps you write applications that behave consistently, run in different environments (client, server, and native), and are easy to test.",
            "url": "https://redux.js.org/introduction/getting-started"
        },
        {
            "name": "next-i18next",
            "description": "next-i18next is a plugin for Next.js projects that allows you to get translations up and running quickly and easily, while fully supporting SSR, multiple namespaces with codesplitting, etc.",
            "url": "https://github.com/isaachinman/next-i18next"
        },
        {
            "name": "Prettier",
            "description": "An opinionated code formatter; Supports many languages; Integrates with most editors.",
            "url": "https://prettier.io/docs/en/index.html"
        },
        {
            "name": "Docker",
            "description": "Docker simplifies and accelerates your workflow, while giving developers the freedom to innovate with their choice of tools, application stacks, and deployment environments for each project.",
            "url": "https://www.docker.com/get-started"
        }
    ]
}
